19920038,1,Elementary,Sta. Maria ElementalY School ,Primary,1971,1976,,1976,,,,,,,,,,,,,,,,,,
19920038,2,Secondary,Sta. Maria Academy,Secondary,1976,1980,,1980,,,,,,,,,,,,,,,,,,
19920038,4,College,Papa Jun College Mabitac Laguna,BS Commerce,1980,1981,44 units,,,,,,,,,,,,,,,,,,,
19920038,4,College,College of the Holy Spirit Mendiola Manila,BS Fine Arts Advertising,1981,1985,graduated,1985,,,,,,,,,,,,,,,,,,
19920038,4,College,Arellano University Legarda Manila,BS Education English,1987,1989,graduated,1989,,,,,,,,,,,,,,,,,,
19920038,5,Graduate Studies,St. Louis University Baguio City,Religious Studies,,1991,9 units,,,,,,,,,,,,,,,,,,,
19920038,5,Graduate Studies,University of the Philippines Diliman Quezon City,Masters on Women and Development,1995,1999,graduated,1999,,,,,,,,,,,,,,,,,,
19830020,1,"ELEMENTARY
","Francisco Melgar Memorial School		
",Primary,1964,1970,,1970,,,,,,,,,,,,,,,,,,
19830020,2,SECONDARY,Naujan Academy,High School,1970,1975,,1975,,,,,,,,,,,,,,,,,,
19830020,3,VOCATIONAL /   TRADE COURSE,Victorino Mapa High School,Secretarial,1983,,,,,,,,,,,,,,,,,,,,,
19830020,4,COLLEGE,Arellano University,BSC-Management,1978,1982,3rd year,,,,,,,,,,,,,,,,,,,
20070182,1,Elementary,Gumaca West Elementary School,Primary,1984,1990,,1990,Third Honorable Mention,,,,,,,,,,,,,,,,,
20070182,2,Secondary,Gumaca National High School,High School,1990,1994,,1994,,,,,,,,,,,,,,,,,,
20070182,3,VOCATIONAL/ TRADE COURSE,Bacani Computer Training Center,MS Word MS Excel and Powerpoint,1998,1998,,,,,,,,,,,,,,,,,,,,
20070182,3,VOCATIONAL/ TRADE COURSE,Ramon Magsaysay Evening Vocational School,Food Trades Food Service Management and Baking,,,,,,,,,,,,,,,,,,,,,,
20070182,4,COLLEGE,Philippine School of Business Administration-Manila,BS Business Administration major in Management and Marketing,1994,1998,,1998,,,,,,,,,,,,,,,,,,
20070182,4,GRADUATE STUDIES ,University of Santo Tomas,Master in Business Administration,1999,2004,finished 45 academic units  and passed the Written Comprehensive Exam (WCE),,,,,,,,,,,,,,,,,,,
20140348,1,ELEMENTARY,JOSE ABAD SANTOS MEMORIAL SCHOOL,Primary,,,,1998,None,,,,,,,,,,,,,,,,,
20140348,2,Secondary,IMMACULATE CONCEPTION CATHERDRAL SCHOOL,,,,,2002,NONE,,,,,,,,,,,,,,,,,
20140348,3,VOCATIONAL / TRADE COURSE                                                                                                                                                                                                      ,,,,,,,,,,,,,,,,,,,,,,,,
20140348,4,College,UNIVERSITY OF SANTO TOMAS,BA IN COMMUNICATION ARTS,,,,2006,CUM LAUDE,,,,,,,,,,,,,,,,,
20140348,5,GRADUATE STUDIES ,KOREA UNIVERSITY,MA IN MASS COMMUNICATION AND JOURNALISM,,,9 UNITS,,Korean Government Scholarship Program,,,,,,,,,,,,,,,,,
19830018,1,Elementary,Lakandula Elementary School,Primary,,,,1976,Diploma,,,,,,,,,,,,,,,,,
19830018,2,Secondary,"F. Torres High School
",Secondary,,,,1980,Diploma,,,,,,,,,,,,,,,,,
20030146,1,Elementary,Jacinto Zamora,Primary,1968,1972,,1972,,,,,,,,,,,,,,,,,,
20030146,2,Secondary,Manuel A. Roxas,Secondary,1972,1976,,1976,,,,,,,,,,,,,,,,,,
20030146,4,College,Polytechnic University of the Philippines,Bachelor of Science - Management,1976,,3rd year,,,,,,,,,,,,,,,,,,,
19860022,1,Elementary,Geronimo Santiago Elementary School,Elementary,1970,1976,,1976,,,,,,,,,,,,,,,,,,
19860022,2,Secondary,Victorino Mapa High School,Secondary,1976,1980,,1980,,,,,,,,,,,,,,,,,,
19860022,3,Vocational/Trade Course,Victorino Mapa High School,Vocational Secretarial,1982,1982,6 mos.,1982,,,,,,,,,,,,,,,,,,
19860022,4,College,Manuel L. Quezon,Commerce,1980,1983,3rd year,,,,,,,,,,,,,,,,,,,
20170443,1,Elementary,St. Paul Academy,Elementary Education,1999,2005,,2005,With Distinction Leadership Service Awardee,,,,,,,,,,,,,,,,,
20170443,2,Secondary,St. Paul Academy,Secondary Education,2005,2009,,2009,Valedictorian Leadership and Service Awardee,,,,,,,,,,,,,,,,,
20170443,4,College,University of the Philippines,Bachelor of Arts in Sociology,2009,2013,,2013,Cum Laude,,,,,,,,,,,,,,,,,
19900034,1,Elementary,Maguikay Elem. School,Elementary,,,,1979,Valedictorian,,,,,,,,,,,,,,,,,
19900034,2,Secondary,University of the Phil. College Cebu,High School,,,,1983,Top Ten Graduate; Mandaue Sangguniang,,,,,,,,,,,,,,,,,
19900034,4,College,University of the Philippines College Cebu,BS Mathematics,,,,1987,UP Grant-in-Aid Awardee,,,,,,,,,,,,,,,,,
19900034,5,Graduate Sudies,Australian National University,Master of Applied Anthropology and Participatory Devt (Specialising in Gender and Devt),,,,2011,With Distinction,,,,,,,,,,,,,,,,,
20150371,1,Elementary,Imelda Elementary School,Primary,1996,2002,,2002,,,,,,,,,,,,,,,,,,
20150371,2,Secondary,Nueva Ecija High School,High School,2002,2006,,2006,,,,,,,,,,,,,,,,,,
20150371,4,College,"Manuel V. Gallego Foundation Colleges Inc.		",Bachelor of Science in Computer Science,2006,2010,,,,,,,,,,,,,,,,,,,,
20150371,5,Graduate Studies,Nueva Ecija University of Science and Technology,Master of Science in Information Technology,2011,2013,36 units + Compre Exam Passed,,,,,,,,,,,,,,,,,,,
20170433,1,Elementary,St. Bridget College,Elementary,1981,1988,,1988,,,,,,,,,,,,,,,,,,
20170433,2,Secondary,St. Bridget College,Secondary,1988,1992,,1992,,,,,,,,,,,,,,,,,,
20170433,4,College,Assumption College,Bachelor of Science in Commerce Major in Management Information System,1992,1996,,1996,,,,,,,,,,,,,,,,,,
20170433,5,Graduate Studies,Ateneo School of Government,Master in Public Management,,,,,,,,,,,,,,,,,,,,,,
20120273,1,Elementary,St. James College of Quezon City,Primary Education,1995,2001,,2001,,,,,,,,,,,,,,,,,,
20120273,2,Secondary,Holy Spirit Academy of Malolos,High School,2001,2005,,2005,Best in Oral and Written Communication,,,,,,,,,,,,,,,,,
20120273,4,College,University of the Philippines Diliman,Bachelor of Arts in Political Science,2005,2009,,2009,Cum Laude,,,,,,,,,,,,,,,,,
20120273,5,Graduate Studies,University of the Philippines Diliman,Master in Asian Studies,2010,2016,30 units,,,,,,,,,,,,,,,,,,,
20150375,1,Elementary,Baclaran Elementary School Central,,1996,2002,,2002,Salutatorian,,,,,,,,,,,,,,,,,
20150375,2,Secondary,Manila Science High School,,2002,2006,,2006,TOP 16,,,,,,,,,,,,,,,,,
20150375,4,College,University of the Philippines - College of Business Administration,,2006,2010,,2010,Cum Laude,,,,,,,,,,,,,,,,,
20150375,5,Graduate Studies,University of the Philippines - College of Law,,2010,2016,,2016,,,,,,,,,,,,,,,,,,
20180451,1,Elementary,Canossa Academy,Elementary (including Kindergarten),,,,1988,None,,,,,,,,,,,,,,,,,
20180451,2,Secondary,Canossa Academy,Secondary,,,,1992,None,,,,,,,,,,,,,,,,,
20180451,4,College,University of the Philippines Los Banos Laguna,Bachelor of Arts in Sociology,,,,1997,None,,,,,,,,,,,,,,,,,
20180451,5,Graduate Studies,University of the Philippines Los Banos Laguna,Master of Arts in Women and Development,,,,2009,None,,,,,,,,,,,,,,,,,
20180451,5,Graduate Studies,University of the Philippines Los Banos Laguna,Master in Development Management and Governance,,,,2016,None,,,,,,,,,,,,,,,,,
20150389,1,Elementary,Sampaloc Elementary School,Primary,1997,2003,Graduate,2003,None,,,,,,,,,,,,,,,,,
20150389,2,Secondary,Tanay National High Schoo;,Secondary,2003,2007,Graduate,2007,None,,,,,,,,,,,,,,,,,
20150389,4,College,Polytechnic University of the Philippines,Bachelor in Business Teacher Education Major in Business Technology,2009,2013,Graduate,2013,Deans Lister,,,,,,,,,,,,,,,,,
140260,1,Elementary,Taft Central Elementary School,Elementary Education,,,,2001,Honorable,,,,,,,,,,,,,,,,,
140260,2,Secondary,Taft National High School,Secondary Education,,,,2005,,,,,,,,,,,,,,,,,,
140260,4,College,University of the Philippines in the Visayas Tacloban,BA Communication Arts,,,,2009,,,,,,,,,,,,,,,,,,
140260,5,Graduate Studies,Polytechnic University of the Philippines,Juris Doctor,,,,,,,,,,,,,,,,,,,,,,
20120281,1,Elementary,Vinzons Pilot Elementary School,Primary Education,,,,1994,None,,,,,,,,,,,,,,,,,
20120281,2,Secondary,Vinzons Pilot High School,High School,,,,1998,None,,,,,,,,,,,,,,,,,
20120281,4,College,Polytechnic University of the Philippines,Bachelor of Science in Information Technology,,,,2002,None,,,,,,,,,,,,,,,,,
20180458,1,Elementary,Project 6 Elementary School,Elementary,,,,2003,,,,,,,,,,,,,,,,,,
20180458,2,Secondary,Basud National High School,Secondary,,,,2007,,,,,,,,,,,,,,,,,,
20180458,4,College,University of Santo Tomas,BS Business Administration Major in Business Economics,,,,2011,,,,,,,,,,,,,,,,,,
20180458,5,Graduate Studies,San Beda College,Bachelor of Laws,,,,2016,,,,,,,,,,,,,,,,,,
19990113,1,Elementary,Saint Anthony School,Elementary,1975,1978,GRADUATE,1978,,,,,,,,,,,,,,,,,,
19990113,2,Secondary,Saint Anthony School,High School,1978,1983,GRADUATE,1983,,,,,,,,,,,,,,,,,,
19990113,4,College,Philippine Christian University,B.S. in Business Administration,1983,1987,175,,,,,,,,,,,,,,,,,,,
19990113,4,College,Polytechnic University of the Philippines,B.S. in Entrepreneurial Management,2000,2013,GRADUATE,2013,,,,,,,,,,,,,,,,,,
19990113,5,Graduate Studies,Polytechnic University of the Philippines,Masteral in Public Asministration,2017,,27,,,,,,,,,,,,,,,,,,,
20180461,1,Elementary,Moises Salvador Elementary School,Primary,,,,2006,,,,,,,,,,,,,,,,,,
20180461,2,Secondary,Victorino Mapa High School,Secondary,,,,2009,,,,,,,,,,,,,,,,,,
20180461,4,College,Universidad de Manila,Industrial Technology Major in Electrical,,,,2015,,,,,,,,,,,,,,,,,,
20130309,1,Elementary,Tinambac Central School II,,1985,1991,,1991,,,,,,,,,,,,,,,,,,
20130309,2,Secondary,Don Servillano Platon Memorial High School,,1991,1995,,1995,,,,,,,,,,,,,,,,,,
20130309,4,College,Worldtech Resources Institute,Computer Sectretarial,1997,1999,,1999,,,,,,,,,,,,,,,,,,
20120298,1,Elementary,Maricaban Elementary School,Primary Education,,,,2004,2ND Honorable Mention; Best in Math,,,,,,,,,,,,,,,,,
20120298,2,Secondary,Southeastern College,High School,,,1st Year ,,,,,,,,,,,,,,,,,,,
20120298,2,Secondary,Pasay City North High School,High School,,,Graduate,2008,,,,,,,,,,,,,,,,,,
20120298,4,College,The University of Manila,Bachelor of Science in Computer Science,,,Graduate,2012,,,,,,,,,,,,,,,,,,
20170437,1,Elementary,Mobo North Central School,Elementary,2001,2007,,2007,Valedictorian,,,,,,,,,,,,,,,,,
20170437,2,Secondary,Mobo National High School,Secodary Education,2007,2011,,2011,Valedictorian,,,,,,,,,,,,,,,,,
20170437,4,College,University of the Philippines - Cebu,BA Political Science,2011,2015,,2015,Cum Laude,,,,,,,,,,,,,,,,,
20170437,5,Graduate Studies,University of Cebu - College of Law,Juris Doctor,2015,2016,30 units,,,,,,,,,,,,,,,,,,,