19920038,Career Service Professional Examination,71.20,1986-08-03,Manila,,,,,,,,,,,,,,,,,,,,,
19920038,Professional Board Exam for Teachers ,75.88,1988-11-27,Quezon City ,,,,,,,,,,,,,,,,,,,,,
19920038,Career Executive Officer Examination (First Stage Written Exam),Passed ,2007-06-10,CESB Quezon City ,,,,,,,,,,,,,,,,,,,,,
19830020,SUB-PROFESSIONAL  ,81.41,1996-05-11,MANILA,,,,,,,,,,,,,,,,,,,,,
20070182,Career Service Professional Exam,80.27,1998-11-08,E. Rodriguez Jr. High School,,,,,,,,,,,,,,,,,,,,,
20070182,Career Service Sub-Professional Exam,84.51,1997-06-29,P. Gomez Elementary School,,,,,,,,,,,,,,,,,,,,,
20140348,HONOR GRADUATE PD 907,,2006-03-25,CSC-NCR,,,,,,,,,,,,,,,,,,,,,
19830018,,,,,,,,,,,,,,,,,,,,,,,,,
20030146,Career Service Sub-Professional,70.50,1984-10-14,Manila,,,,,,,,,,,,,,,,,,,,,
19860022,Career Service Sub-Professional,81.00,1996-05-11,Manila,,,,,,,,,,,,,,,,,,,,,
20170443,Career Service Professional (2nd Level),84.15,2014-06-04,Ramon Magsaysay (Cubao) National High School,Examinee Number: 466776,2014-05-19,,,,,,,,,,,,,,,,,,,
19900034,Career Service,79.63,1987-07-26,Cebu City,,1988-11-16,,,,,,,,,,,,,,,,,,,
19900034,Licensure Exam for Teachers,84.40,2006-08-27,Manila,89261,2006-10-01,,,,,,,,,,,,,,,,,,,
20170433,,,,,,,,,,,,,,,,,,,,,,,,,
20150371,Career Service Professional,83.45,2014-10-26,Cabanatuan City Nueva Ecija,,,,,,,,,,,,,,,,,,,,,
20120273,PD 907 - Honor Graduate,,2009-04-26,Quezon City ,,,,,,,,,,,,,,,,,,,,,
20150375,Career Service - Professional,87.60,2009-11-15,Quezon City ,,,,,,,,,,,,,,,,,,,,,
20180451,Career Service Professional,80.80,2011-05-01,P. Guevarra National High School Sta. Cruz Laguna,,,,,,,,,,,,,,,,,,,,,
20150389,Professional Teacher License Examiniation,76.20,2014-08-14,TUP Manila,-,2014-12-01,,,,,,,,,,,,,,,,,,,
140260,Civil Service Professional,80.43,2008-11-16,Leyte Normal University Tacloban City Leyte,08-102032,2009-06-02,,,,,,,,,,,,,,,,,,,
20120281,Career Service Professional,82.43,2002-10-20,Daet Camarines Norte,,,,,,,,,,,,,,,,,,,,,
20180458,Philippine Bar Examinations,79.15,2017-02-06,University of Santo Tomas/ Supreme Court Manila,Roll Number 70379,,,,,,,,,,,,,,,,,,,,
20130325,Career Service Professional,80.4,2012-10-21,SAN FRANCISCO HIGH SCHOOL WEST AVENUE QUEZON CITY,,,,,,,,,,,,,,,,,,,,,
19990113,Career Sub-Professional,89.01,1999-02-14,Manila,,1999-01-03,,,,,,,,,,,,,,,,,,,
19990113,Career Professional,81.79,2012-04-19,CSC Central Office,08-130840,2012-04-19,,,,,,,,,,,,,,,,,,,
20180461,Barangay Official Eligibility,,,,,,,,,,,,,,,,,,,,,,,,
20120298,Career Service Professional,80.2,2012-10-21,Sto. Cristo Elementary School Bago Bantay Quezon City,,,,,,,,,,,,,,,,,,,,,
20170437,Professional Civil Service Eligibility,84.5,2016-10-23,,,,,,,,,,,,,,,,,,,,,,