{
	"rowEligibility":5,
	"rowWorkExperience":27,
	"rowVoluntary":5,
	"rowLearning":22,
	"rowOtherInfo":5,
	"rowChildren": 12,
	"rowEduc": 3,
	"rowVocational": 1,
	"rowCollege": 1,
	"rowGradStud": 1,
	"rowPerPage":35,
	"trHeight":"28px",
	"PAOBoxSign":"40px",
	"cssTD":"td {padding-bottom:1px;padding-top:1px;}",
	"cssTR":"tr {height:16px;}"
}