{
	"TimeIn":"1",
	"LunchOut":"3",
	"LunchIn":"4",
	"TimeOut":"2",
	"OTIn":"5",
	"OTOut":"6",
	"OBOut":"7",
	"OBIn":"8",
	"FieldTimeIn":"TimeIn",
	"FieldLunchOut":"LunchIn",
	"FieldLunchIn":"TimeOut",
	"FieldTimeOut":"LunchOut",
	"OTMinTime":"120",
	"COCMinTime":"60",
	"show.JobGrade": true,
	"show.MyRequest": false,
	"SignInMode": 1,
	"SignInLayout":1,
	"userCanAddWE": true,
	"userCanEditWE": true,
	"userCanAddSR": true,
	"userCanEditSR": true,
	"WorkingHrs": 10, 
	"Title":"Human Resource Information System",
	"Last": true
}