015659,,,
015539,5.756 ,57.480 ,63.236 
015553,75.101 ,104.126 ,179.227 
015642,7.749 ,15.208 ,22.957 
015623,30.120 ,35.333 ,65.453 
010065,22.892 ,149.250 ,172.142 
015522,44.412 ,104.355 ,148.767 
015546,2.437 ,84.062 ,86.499 
010090,43.528 ,52.955 ,96.483 
015462,3.982 ,18.397 ,22.379 
015658,,,0.000 
015608,13.783 ,30.000 ,43.783 
010120,17.748 ,235.877 ,253.625 
015636,21.144 ,36.000 ,57.144 
015566,1.683 ,71.167 ,72.850 
015512,3.084 ,60.626 ,63.710 
015481,3.192 ,61.273 ,64.465 
015648,6.863 ,12.042 ,18.905 
015649,8.494 ,11.042 ,19.536 
012831,99.709 ,258.959 ,358.668 
015627,30.935 ,38.542 ,69.477 
015590,14.710 ,38.000 ,52.710 
015439,12.250 ,19.547 ,31.797 
015551,1.335 ,179.022 ,180.357 
015657,7.917 ,7.917 ,15.834 
015599,35.856 ,73.250 ,109.106 
010472,39.847 ,47.697 ,87.544 
015643,0.975 ,15.062 ,16.037 
015560,9.340 ,72.583 ,81.923 
010901,13.621 ,27.065 ,40.686 
013552,2.674 ,37.834 ,40.508 
015645,15.017 ,17.833 ,32.850 
015430,114.375 ,143.001 ,257.376 
015660,,,0.000 
015646,13.292 ,15.792 ,29.084 
015653,7.157 ,6.542 ,13.699 
015534,3.617 ,30.941 ,34.558 
019500,9.128 ,34.624 ,43.752 
015650,7.469 ,12.500 ,19.969 
015601,4.601 ,28.042 ,32.643 
015565,14.799 ,30.854 ,45.653 
015631,30.123 ,33.958 ,64.081 
015587,23.695 ,55.500 ,79.195 
012050,8.957 ,36.378 ,45.335 
015572,6.308 ,8.916 ,15.224 
015641,19.809 ,21.167 ,40.976 
015485,11.380 ,16.938 ,28.318 
015612,8.911 ,26.375 ,35.286 
015591,14.043 ,17.625 ,31.668 
015614,13.920 ,40.458 ,54.378 
012769,,,0.000 
015662,,,0.000 
015655,7.270 ,7.500 ,14.770 
013102,61.625 ,508.875 ,570.500 
010880,57.092 ,170.295 ,227.387 
015486,48.822 ,59.688 ,108.510 
013307,125.250 ,502.250 ,627.500 
013145,16.317 ,39.399 ,55.716 
015630,11.908 ,38.625 ,50.533 
015410,3.608 ,28.812 ,32.420 
015639,13.952 ,23.250 ,37.202 
013455,34.906 ,348.858 ,383.764 
015564,11.017 ,25.896 ,36.913 
015603,22.721 ,35.667 ,58.388 
015628,7.676 ,31.667 ,39.343 
015574,7.045 ,41.333 ,48.378 
013803,11.606 ,33.501 ,45.107 
015518,137.249 ,191.500 ,328.749 
015638,41.733 ,30.708 ,72.441 
014401,23.208 ,352.458 ,375.666 
015654,5.000 ,8.750 ,13.750 
015487,17.037 ,76.667 ,93.704 
015547,2.833 ,32.208 ,35.041 
014605,1.116 ,5.187 ,6.303 
011045,2.591 ,24.128 ,26.719 
015661,,,0.000 
015652,9.669 ,9.875 ,19.544 
015621,7.208 ,49.083 ,56.291 
015472,22.854 ,149.854 ,172.708 
015470,1.210 ,28.646 ,29.856 
015637,82.502 ,164.660 ,247.162 
015651,40.383 ,69.292 ,109.675 
015656,21.333 ,32.333 ,53.666 
015172,5.042 ,26.121 ,31.163 
015622,24.859 ,35.375 ,60.234 
015434,1.987 ,1.752 ,3.739 
015644,14.166 ,18.417 ,32.583 
015397,5.588 ,28.222 ,33.810 
015647,10.458 ,15.458 ,25.916 