{
	"[[EmployeesName]]":"",
	"[[SuperVisorName]]":"",
	"[[CompanyAddress]]":"E2E Solutions Management Systems<br>España, Manila",
	"[[D1]]":"",
	"[[D2]]":"",
	"[[D3]]":"",
	"[[D4]]":"",
	"[[D5]]":"",
	"[[D6]]":"",
	"[[D7]]":"",
	"[[D8]]":"",
	"[[D9]]":"",
	"[[D10]]":"",
	"[[D11]]":"",
	"[[D12]]":"",
	"[[D13]]":"",
	"[[D14]]":"",
	"[[D15]]":"",
	"[[D16]]":"",
	"[[D17]]":"",
	"[[D18]]":"",
	"[[D19]]":"",
	"[[D20]]":"",
	"[[D21]]":"",
	"[[D22]]":"",
	"[[D23]]":"",
	"[[D24]]":"",
	"[[D25]]":"",
	"[[D26]]":"",
	"[[D27]]":"",
	"[[D28]]":"",
	"[[D29]]":"",
	"[[D30]]":"",
	"[[D31]]":"",
	"[[DIN01]]":"",
	"[[DIN02]]":"",
	"[[DIN03]]":"",
	"[[DIN04]]":"",
	"[[DIN05]]":"",
	"[[DIN06]]":"",
	"[[DIN07]]":"",
	"[[DIN08]]":"",
	"[[DIN09]]":"",
	"[[DIN10]]":"",
	"[[DIN11]]":"",
	"[[DIN12]]":"",
	"[[DIN13]]":"",
	"[[DIN14]]":"",
	"[[DIN15]]":"",
	"[[DIN16]]":"",
	"[[DIN17]]":"",
	"[[DIN18]]":"",
	"[[DIN19]]":"",
	"[[DIN20]]":"",
	"[[DIN21]]":"",
	"[[DIN22]]":"",
	"[[DIN23]]":"",
	"[[DIN24]]":"",
	"[[DIN25]]":"",
	"[[DIN26]]":"",
	"[[DIN27]]":"",
	"[[DIN28]]":"",
	"[[DIN29]]":"",
	"[[DIN30]]":"",
	"[[DIN31]]":"",
	"[[DOUT01]]":"",
	"[[DOUT02]]":"",
	"[[DOUT03]]":"",
	"[[DOUT04]]":"",
	"[[DOUT05]]":"",
	"[[DOUT06]]":"",
	"[[DOUT07]]":"",
	"[[DOUT08]]":"",
	"[[DOUT09]]":"",
	"[[DOUT10]]":"",
	"[[DOUT11]]":"",
	"[[DOUT12]]":"",
	"[[DOUT13]]":"",
	"[[DOUT14]]":"",
	"[[DOUT15]]":"",
	"[[DOUT16]]":"",
	"[[DOUT17]]":"",
	"[[DOUT18]]":"",
	"[[DOUT19]]":"",
	"[[DOUT20]]":"",
	"[[DOUT21]]":"",
	"[[DOUT22]]":"",
	"[[DOUT23]]":"",
	"[[DOUT24]]":"",
	"[[DOUT25]]":"",
	"[[DOUT26]]":"",
	"[[DOUT27]]":"",
	"[[DOUT28]]":"",
	"[[DOUT29]]":"",
	"[[DOUT30]]":"",
	"[[DOUT31]]":"",
	"[[LIN01]]":"",
	"[[LIN02]]":"",
	"[[LIN03]]":"",
	"[[LIN04]]":"",
	"[[LIN05]]":"",
	"[[LIN06]]":"",
	"[[LIN07]]":"",
	"[[LIN08]]":"",
	"[[LIN09]]":"",
	"[[LIN10]]":"",
	"[[LIN11]]":"",
	"[[LIN12]]":"",
	"[[LIN13]]":"",
	"[[LIN14]]":"",
	"[[LIN15]]":"",
	"[[LIN16]]":"",
	"[[LIN17]]":"",
	"[[LIN18]]":"",
	"[[LIN19]]":"",
	"[[LIN20]]":"",
	"[[LIN21]]":"",
	"[[LIN22]]":"",
	"[[LIN23]]":"",
	"[[LIN24]]":"",
	"[[LIN25]]":"",
	"[[LIN26]]":"",
	"[[LIN27]]":"",
	"[[LIN28]]":"",
	"[[LIN29]]":"",
	"[[LIN30]]":"",
	"[[LIN31]]":"",
	"[[LOUT01]]":"",
	"[[LOUT02]]":"",
	"[[LOUT03]]":"",
	"[[LOUT04]]":"",
	"[[LOUT05]]":"",
	"[[LOUT06]]":"",
	"[[LOUT07]]":"",
	"[[LOUT08]]":"",
	"[[LOUT09]]":"",
	"[[LOUT10]]":"",
	"[[LOUT11]]":"",
	"[[LOUT12]]":"",
	"[[LOUT13]]":"",
	"[[LOUT14]]":"",
	"[[LOUT15]]":"",
	"[[LOUT16]]":"",
	"[[LOUT17]]":"",
	"[[LOUT18]]":"",
	"[[LOUT19]]":"",
	"[[LOUT20]]":"",
	"[[LOUT21]]":"",
	"[[LOUT22]]":"",
	"[[LOUT23]]":"",
	"[[LOUT24]]":"",
	"[[LOUT25]]":"",
	"[[LOUT26]]":"",
	"[[LOUT27]]":"",
	"[[LOUT28]]":"",
	"[[LOUT29]]":"",
	"[[LOUT30]]":"",
	"[[LOUT31]]":"",
	"[[Position]]":"",
	"[[Office]]":"",
	"[[Period]]":"",
	"[[WorkSchedule]]":"",
	"[[SmallLogo]]":"<img src='../../../public/images/PCCLogoSmall.png' style='height:60px;'>"
}