{
	"Title":"Designation",
	"Table":"designation",
	"File":"modelDesignation",
	"Description":"",
	"Action":[true,true,true,false],
	"Label":["Code","Name","Remarks"],
	"Fields":["Code","Name","Remarks"]
}