{
	"Title":"SeminarSponsor",
	"Table":"seminarsponsor",
	"File":"modelSemSponsor",
	"Description":"",
	"Action":[true,true,true,false],
	"Label":["Code","Name","Remarks"],
	"Fields":["Code","Name","Remarks"]
}