{
	"[[LN]]":"N/A",
	"[[FN]]":"N/A",
	"[[MN]]":"N/A",
	"[[EN]]":"N/A",
	"[[BD]]":"N/A",
	"[[DU]]":"N/A",
	"[[BP]]":"N/A",
	"[[S]]":"N/A",
	"[[CS]]":"N/A",
	"[[CSexp]]":"N/A",
	"[[DUC]]":"N/A",
	"[[FI]]":"N/A",
	"[[b]]":"N/A",
	"[[n]]":"N/A",
	"[[ResiHouseNo]]":"N/A",
	"[[ResiStreet]]":"N/A",
	"[[ResiSubd]]":"N/A",
	"[[ResiBrgy]]":"N/A",
	"[[ResiCity]]":"N/A",
	"[[ResiProvince]]":"N/A",
	"[[ResiZipCode]]":"N/A",
	"[[PermaHouseNo]]":"N/A",
	"[[PermaStreet]]":"N/A",
	"[[PermaSubd]]":"N/A",
	"[[PermaBrgy]]":"N/A",
	"[[PermaCity]]":"N/A",
	"[[PermaProvince]]":"N/A",
	"[[PermaZipCode]]":"N/A",
	"[[Height]]":"N/A",
	"[[Weight]]":"N/A",
	"[[BT]]":"N/A",
	"[[GSIS]]":"N/A",
	"[[PAGIBIG]]":"N/A",
	"[[TIN]]":"N/A",
	"[[SSS]]":"N/A",
	"[[PHIC]]":"N/A",
	"[[AID]]":"N/A",
	"[[TEL]]":"N/A",
	"[[MOB]]":"N/A",
	"[[EMAIL]]":"N/A",
	"[[SLN]]":"N/A",
	"[[SFN]]":"N/A",
	"[[SMN]]":"N/A",
	"[[SEN]]":"N/A",
	"[[OCC]]":"N/A",
	"[[EMPLYR]]":"N/A",
	"[[BA]]":"N/A",
	"[[STEL]]":"N/A",
	"[[FLN]]":"N/A",
	"[[FFN]]":"N/A",
	"[[FMN]]":"N/A",
	"[[FEN]]":"N/A",
	"[[MLN]]":"N/A",
	"[[MFN]]":"N/A",
	"[[MMN]]":"N/A",
	"[[CH1]]":"N/A",
	"[[CHBD1]]":"N/A",
	"[[CH2]]":"N/A",
	"[[CHBD2]]":"N/A",
	"[[CH3]]":"N/A",
	"[[CHBD3]]":"N/A",
	"[[CH4]]":"N/A",
	"[[CHBD4]]":"N/A",
	"[[CH5]]":"N/A",
	"[[CHBD5]]":"N/A",
	"[[CH6]]":"N/A",
	"[[CHBD6]]":"N/A",
	"[[CH7]]":"N/A",
	"[[CHBD7]]":"N/A",
	"[[CH8]]":"N/A",
	"[[CHBD8]]":"N/A",
	"[[CH9]]":"N/A",
	"[[CHBD9]]":"N/A",
	"[[CH10]]":"N/A",
	"[[CHBD10]]":"N/A",
	"[[CH11]]":"N/A",
	"[[CHBD11]]":"N/A",
	"[[CH12]]":"N/A",
	"[[CHBD12]]":"N/A",
	"[[es1]]":"N/A",
	"[[ec1]]":"N/A",
	"[[ef1]]":"N/A",
	"[[et1]]":"N/A",
	"[[el1]]":"N/A",
	"[[ey1]]":"N/A",
	"[[eh1]]":"N/A",
	"[[ss1]]":"N/A",
	"[[sc1]]":"N/A",
	"[[sf1]]":"N/A",
	"[[st1]]":"N/A",
	"[[sl1]]":"N/A",
	"[[sy1]]":"N/A",
	"[[sh1]]":"N/A",
	"[[vs1]]":"N/A",
	"[[vc1]]":"N/A",
	"[[vf1]]":"N/A",
	"[[vt1]]":"N/A",
	"[[vl1]]":"N/A",
	"[[vy1]]":"N/A",
	"[[vh1]]":"N/A",
	"[[vs2]]":"N/A",
	"[[vc2]]":"N/A",
	"[[vf2]]":"N/A",
	"[[vt2]]":"N/A",
	"[[vl2]]":"N/A",
	"[[vy2]]":"N/A",
	"[[vh2]]":"N/A",
	"[[cs1]]":"N/A",
	"[[cc1]]":"N/A",
	"[[cf1]]":"N/A",
	"[[ct1]]":"N/A",
	"[[cl1]]":"N/A",
	"[[cy1]]":"N/A",
	"[[ch1]]":"N/A",
	"[[cs2]]":"N/A",
	"[[cc2]]":"N/A",
	"[[cf2]]":"N/A",
	"[[ct2]]":"N/A",
	"[[cl2]]":"N/A",
	"[[cy2]]":"N/A",
	"[[ch2]]":"N/A",
	"[[cs3]]":"N/A",
	"[[cc3]]":"N/A",
	"[[cf3]]":"N/A",
	"[[ct3]]":"N/A",
	"[[cl3]]":"N/A",
	"[[cy3]]":"N/A",
	"[[ch3]]":"N/A",
	"[[cs4]]":"N/A",
	"[[cc4]]":"N/A",
	"[[cf4]]":"N/A",
	"[[ct4]]":"N/A",
	"[[cl4]]":"N/A",
	"[[cy4]]":"N/A",
	"[[ch4]]":"N/A",
	"[[gs1]]":"N/A",
	"[[gc1]]":"N/A",
	"[[gf1]]":"N/A",
	"[[gt1]]":"N/A",
	"[[gl1]]":"N/A",
	"[[gy1]]":"N/A",
	"[[gh1]]":"N/A",
	"[[gs2]]":"N/A",
	"[[gc2]]":"N/A",
	"[[gf2]]":"N/A",
	"[[gt2]]":"N/A",
	"[[gl2]]":"N/A",
	"[[gy2]]":"N/A",
	"[[gh2]]":"N/A",
	"[[gs3]]":"N/A",
	"[[gc3]]":"N/A",
	"[[gf3]]":"N/A",
	"[[gt3]]":"N/A",
	"[[gl3]]":"N/A",
	"[[gy3]]":"N/A",
	"[[gh3]]":"N/A",
	"[[EL_1]]":"N/A",
	"[[EL_RA1]]":"N/A",
	"[[EL_DA1]]":"N/A",
	"[[EL_PL1]]":"N/A",
	"[[EL_N1]]":"N/A",
	"[[EL_VAL1]]":"N/A",
	"[[EL_2]]":"N/A",
	"[[EL_RA2]]":"N/A",
	"[[EL_DA2]]":"N/A",
	"[[EL_PL2]]":"N/A",
	"[[EL_N2]]":"N/A",
	"[[EL_VAL2]]":"N/A",
	"[[EL_3]]":"N/A",
	"[[EL_RA3]]":"N/A",
	"[[EL_DA3]]":"N/A",
	"[[EL_PL3]]":"N/A",
	"[[EL_N3]]":"N/A",
	"[[EL_VAL3]]":"N/A",
	"[[EL_4]]":"N/A",
	"[[EL_RA4]]":"N/A",
	"[[EL_DA4]]":"N/A",
	"[[EL_PL4]]":"N/A",
	"[[EL_N4]]":"N/A",
	"[[EL_VAL4]]":"N/A",
	"[[EL_5]]":"N/A",
	"[[EL_RA5]]":"N/A",
	"[[EL_DA5]]":"N/A",
	"[[EL_PL5]]":"N/A",
	"[[EL_N5]]":"N/A",
	"[[EL_VAL5]]":"N/A",
	"[[EL_6]]":"N/A",
	"[[EL_RA6]]":"N/A",
	"[[EL_DA6]]":"N/A",
	"[[EL_PL6]]":"N/A",
	"[[EL_N6]]":"N/A",
	"[[EL_VAL6]]":"N/A",
	"[[EL_7]]":"N/A",
	"[[EL_RA7]]":"N/A",
	"[[EL_DA7]]":"N/A",
	"[[EL_PL7]]":"N/A",
	"[[EL_N7]]":"N/A",
	"[[EL_VAL7]]":"N/A",
	"[[WE_DF1]]":"N/A",
	"[[WE_DT1]]":"N/A",
	"[[WE_P1]]":"N/A",
	"[[WE_DAO1]]":"N/A",
	"[[WE_SAL1]]":"N/A",
	"[[WE_SI1]]":"N/A",
	"[[WE_A1]]":"N/A",
	"[[WE_G1]]":"N/A",
	"[[WE_DF2]]":"N/A",
	"[[WE_DT2]]":"N/A",
	"[[WE_P2]]":"N/A",
	"[[WE_DAO2]]":"N/A",
	"[[WE_SAL2]]":"N/A",
	"[[WE_SI2]]":"N/A",
	"[[WE_A2]]":"N/A",
	"[[WE_G2]]":"N/A",
	"[[WE_DF3]]":"N/A",
	"[[WE_DT3]]":"N/A",
	"[[WE_P3]]":"N/A",
	"[[WE_DAO3]]":"N/A",
	"[[WE_SAL3]]":"N/A",
	"[[WE_SI3]]":"N/A",
	"[[WE_A3]]":"N/A",
	"[[WE_G3]]":"N/A",
	"[[WE_DF4]]":"N/A",
	"[[WE_DT4]]":"N/A",
	"[[WE_P4]]":"N/A",
	"[[WE_DAO4]]":"N/A",
	"[[WE_SAL4]]":"N/A",
	"[[WE_SI4]]":"N/A",
	"[[WE_A4]]":"N/A",
	"[[WE_G4]]":"N/A",
	"[[WE_DF5]]":"N/A",
	"[[WE_DT5]]":"N/A",
	"[[WE_P5]]":"N/A",
	"[[WE_DAO5]]":"N/A",
	"[[WE_SAL5]]":"N/A",
	"[[WE_SI5]]":"N/A",
	"[[WE_A5]]":"N/A",
	"[[WE_G5]]":"N/A",
	"[[WE_DF6]]":"N/A",
	"[[WE_DT6]]":"N/A",
	"[[WE_P6]]":"N/A",
	"[[WE_DAO6]]":"N/A",
	"[[WE_SAL6]]":"N/A",
	"[[WE_SI6]]":"N/A",
	"[[WE_A6]]":"N/A",
	"[[WE_G6]]":"N/A",
	"[[WE_DF7]]":"N/A",
	"[[WE_DT7]]":"N/A",
	"[[WE_P7]]":"N/A",
	"[[WE_DAO7]]":"N/A",
	"[[WE_SAL7]]":"N/A",
	"[[WE_SI7]]":"N/A",
	"[[WE_A7]]":"N/A",
	"[[WE_G7]]":"N/A",
	"[[WE_DF8]]":"N/A",
	"[[WE_DT8]]":"N/A",
	"[[WE_P8]]":"N/A",
	"[[WE_DAO8]]":"N/A",
	"[[WE_SAL8]]":"N/A",
	"[[WE_SI8]]":"N/A",
	"[[WE_A8]]":"N/A",
	"[[WE_G8]]":"N/A",
	"[[WE_DF9]]":"N/A",
	"[[WE_DT9]]":"N/A",
	"[[WE_P9]]":"N/A",
	"[[WE_DAO9]]":"N/A",
	"[[WE_SAL9]]":"N/A",
	"[[WE_SI9]]":"N/A",
	"[[WE_A9]]":"N/A",
	"[[WE_G9]]":"N/A",
	"[[WE_DF10]]":"N/A",
	"[[WE_DT10]]":"N/A",
	"[[WE_P10]]":"N/A",
	"[[WE_DAO10]]":"N/A",
	"[[WE_SAL10]]":"N/A",
	"[[WE_SI10]]":"N/A",
	"[[WE_A10]]":"N/A",
	"[[WE_G10]]":"N/A",
	"[[WE_DF11]]":"N/A",
	"[[WE_DT11]]":"N/A",
	"[[WE_P11]]":"N/A",
	"[[WE_DAO11]]":"N/A",
	"[[WE_SAL11]]":"N/A",
	"[[WE_SI11]]":"N/A",
	"[[WE_A11]]":"N/A",
	"[[WE_G11]]":"N/A",
	"[[WE_DF12]]":"N/A",
	"[[WE_DT12]]":"N/A",
	"[[WE_P12]]":"N/A",
	"[[WE_DAO12]]":"N/A",
	"[[WE_SAL12]]":"N/A",
	"[[WE_SI12]]":"N/A",
	"[[WE_A12]]":"N/A",
	"[[WE_G12]]":"N/A",
	"[[WE_DF13]]":"N/A",
	"[[WE_DT13]]":"N/A",
	"[[WE_P13]]":"N/A",
	"[[WE_DAO13]]":"N/A",
	"[[WE_SAL13]]":"N/A",
	"[[WE_SI13]]":"N/A",
	"[[WE_A13]]":"N/A",
	"[[WE_G13]]":"N/A",
	"[[WE_DF14]]":"N/A",
	"[[WE_DT14]]":"N/A",
	"[[WE_P14]]":"N/A",
	"[[WE_DAO14]]":"N/A",
	"[[WE_SAL14]]":"N/A",
	"[[WE_SI14]]":"N/A",
	"[[WE_A14]]":"N/A",
	"[[WE_G14]]":"N/A",
	"[[WE_DF15]]":"N/A",
	"[[WE_DT15]]":"N/A",
	"[[WE_P15]]":"N/A",
	"[[WE_DAO15]]":"N/A",
	"[[WE_SAL15]]":"N/A",
	"[[WE_SI15]]":"N/A",
	"[[WE_A15]]":"N/A",
	"[[WE_G15]]":"N/A",
	"[[WE_DF16]]":"N/A",
	"[[WE_DT16]]":"N/A",
	"[[WE_P16]]":"N/A",
	"[[WE_DAO16]]":"N/A",
	"[[WE_SAL16]]":"N/A",
	"[[WE_SI16]]":"N/A",
	"[[WE_A16]]":"N/A",
	"[[WE_G16]]":"N/A",
	"[[WE_DF17]]":"N/A",
	"[[WE_DT17]]":"N/A",
	"[[WE_P17]]":"N/A",
	"[[WE_DAO17]]":"N/A",
	"[[WE_SAL17]]":"N/A",
	"[[WE_SI17]]":"N/A",
	"[[WE_A17]]":"N/A",
	"[[WE_G17]]":"N/A",
	"[[WE_DF18]]":"N/A",
	"[[WE_DT18]]":"N/A",
	"[[WE_P18]]":"N/A",
	"[[WE_DAO18]]":"N/A",
	"[[WE_SAL18]]":"N/A",
	"[[WE_SI18]]":"N/A",
	"[[WE_A18]]":"N/A",
	"[[WE_G18]]":"N/A",
	"[[WE_DF19]]":"N/A",
	"[[WE_DT19]]":"N/A",
	"[[WE_P19]]":"N/A",
	"[[WE_DAO19]]":"N/A",
	"[[WE_SAL19]]":"N/A",
	"[[WE_SI19]]":"N/A",
	"[[WE_A19]]":"N/A",
	"[[WE_G19]]":"N/A",
	"[[WE_DF20]]":"N/A",
	"[[WE_DT20]]":"N/A",
	"[[WE_P20]]":"N/A",
	"[[WE_DAO20]]":"N/A",
	"[[WE_SAL20]]":"N/A",
	"[[WE_SI20]]":"N/A",
	"[[WE_A20]]":"N/A",
	"[[WE_G20]]":"N/A",
	"[[WE_DF21]]":"N/A",
	"[[WE_DT21]]":"N/A",
	"[[WE_P21]]":"N/A",
	"[[WE_DAO21]]":"N/A",
	"[[WE_SAL21]]":"N/A",
	"[[WE_SI21]]":"N/A",
	"[[WE_A21]]":"N/A",
	"[[WE_G21]]":"N/A",
	"[[WE_DF22]]":"N/A",
	"[[WE_DT22]]":"N/A",
	"[[WE_P22]]":"N/A",
	"[[WE_DAO22]]":"N/A",
	"[[WE_SAL22]]":"N/A",
	"[[WE_SI22]]":"N/A",
	"[[WE_A22]]":"N/A",
	"[[WE_G22]]":"N/A",
	"[[WE_DF23]]":"N/A",
	"[[WE_DT23]]":"N/A",
	"[[WE_P23]]":"N/A",
	"[[WE_DAO23]]":"N/A",
	"[[WE_SAL23]]":"N/A",
	"[[WE_SI23]]":"N/A",
	"[[WE_A23]]":"N/A",
	"[[WE_G23]]":"N/A",
	"[[WE_DF24]]":"N/A",
	"[[WE_DT24]]":"N/A",
	"[[WE_P24]]":"N/A",
	"[[WE_DAO24]]":"N/A",
	"[[WE_SAL24]]":"N/A",
	"[[WE_SI24]]":"N/A",
	"[[WE_A24]]":"N/A",
	"[[WE_G24]]":"N/A",
	"[[WE_DF25]]":"N/A",
	"[[WE_DT25]]":"N/A",
	"[[WE_P25]]":"N/A",
	"[[WE_DAO25]]":"N/A",
	"[[WE_SAL25]]":"N/A",
	"[[WE_SI25]]":"N/A",
	"[[WE_A25]]":"N/A",
	"[[WE_G25]]":"N/A",
	"[[VOL_ORG1]]":"N/A",
	"[[VOL_DF1]]":"N/A",
	"[[VOL_DT1]]":"N/A",
	"[[VOL_HR1]]":"N/A",
	"[[VOL_NW1]]":"N/A",
	"[[VOL_ORG2]]":"N/A",
	"[[VOL_DF2]]":"N/A",
	"[[VOL_DT2]]":"N/A",
	"[[VOL_HR2]]":"N/A",
	"[[VOL_NW2]]":"N/A",
	"[[VOL_ORG3]]":"N/A",
	"[[VOL_DF3]]":"N/A",
	"[[VOL_DT3]]":"N/A",
	"[[VOL_HR3]]":"N/A",
	"[[VOL_NW3]]":"N/A",
	"[[VOL_ORG4]]":"N/A",
	"[[VOL_DF4]]":"N/A",
	"[[VOL_DT4]]":"N/A",
	"[[VOL_HR4]]":"N/A",
	"[[VOL_NW4]]":"N/A",
	"[[VOL_ORG5]]":"N/A",
	"[[VOL_DF5]]":"N/A",
	"[[VOL_DT5]]":"N/A",
	"[[VOL_HR5]]":"N/A",
	"[[VOL_NW5]]":"N/A",
	"[[VOL_ORG6]]":"N/A",
	"[[VOL_DF6]]":"N/A",
	"[[VOL_DT6]]":"N/A",
	"[[VOL_HR6]]":"N/A",
	"[[VOL_NW6]]":"N/A",
	"[[VOL_ORG7]]":"N/A",
	"[[VOL_DF7]]":"N/A",
	"[[VOL_DT7]]":"N/A",
	"[[VOL_HR7]]":"N/A",
	"[[VOL_NW7]]":"N/A",
	"[[TP_1]]":"N/A",
	"[[TP_DF1]]":"N/A",
	"[[TP_DT1]]":"N/A",
	"[[TP_HR1]]":"N/A",
	"[[TP_LD1]]":"N/A",
	"[[TP_CS1]]":"N/A",
	"[[TP_2]]":"N/A",
	"[[TP_DF2]]":"N/A",
	"[[TP_DT2]]":"N/A",
	"[[TP_HR2]]":"N/A",
	"[[TP_LD2]]":"N/A",
	"[[TP_CS2]]":"N/A",
	"[[TP_3]]":"N/A",
	"[[TP_DF3]]":"N/A",
	"[[TP_DT3]]":"N/A",
	"[[TP_HR3]]":"N/A",
	"[[TP_LD3]]":"N/A",
	"[[TP_CS3]]":"N/A",
	"[[TP_4]]":"N/A",
	"[[TP_DF4]]":"N/A",
	"[[TP_DT4]]":"N/A",
	"[[TP_HR4]]":"N/A",
	"[[TP_LD4]]":"N/A",
	"[[TP_CS4]]":"N/A",
	"[[TP_5]]":"N/A",
	"[[TP_DF5]]":"N/A",
	"[[TP_DT5]]":"N/A",
	"[[TP_HR5]]":"N/A",
	"[[TP_LD5]]":"N/A",
	"[[TP_CS5]]":"N/A",
	"[[TP_6]]":"N/A",
	"[[TP_DF6]]":"N/A",
	"[[TP_DT6]]":"N/A",
	"[[TP_HR6]]":"N/A",
	"[[TP_LD6]]":"N/A",
	"[[TP_CS6]]":"N/A",
	"[[TP_7]]":"N/A",
	"[[TP_DF7]]":"N/A",
	"[[TP_DT7]]":"N/A",
	"[[TP_HR7]]":"N/A",
	"[[TP_LD7]]":"N/A",
	"[[TP_CS7]]":"N/A",
	"[[TP_8]]":"N/A",
	"[[TP_DF8]]":"N/A",
	"[[TP_DT8]]":"N/A",
	"[[TP_HR8]]":"N/A",
	"[[TP_LD8]]":"N/A",
	"[[TP_CS8]]":"N/A",
	"[[TP_9]]":"N/A",
	"[[TP_DF9]]":"N/A",
	"[[TP_DT9]]":"N/A",
	"[[TP_HR9]]":"N/A",
	"[[TP_LD9]]":"N/A",
	"[[TP_CS9]]":"N/A",
	"[[TP_10]]":"N/A",
	"[[TP_DF10]]":"N/A",
	"[[TP_DT10]]":"N/A",
	"[[TP_HR10]]":"N/A",
	"[[TP_LD10]]":"N/A",
	"[[TP_CS10]]":"N/A",
	"[[TP_11]]":"N/A",
	"[[TP_DF11]]":"N/A",
	"[[TP_DT11]]":"N/A",
	"[[TP_HR11]]":"N/A",
	"[[TP_LD11]]":"N/A",
	"[[TP_CS11]]":"N/A",
	"[[TP_12]]":"N/A",
	"[[TP_DF12]]":"N/A",
	"[[TP_DT12]]":"N/A",
	"[[TP_HR12]]":"N/A",
	"[[TP_LD12]]":"N/A",
	"[[TP_CS12]]":"N/A",
	"[[TP_13]]":"N/A",
	"[[TP_DF13]]":"N/A",
	"[[TP_DT13]]":"N/A",
	"[[TP_HR13]]":"N/A",
	"[[TP_LD13]]":"N/A",
	"[[TP_CS13]]":"N/A",
	"[[TP_14]]":"N/A",
	"[[TP_DF14]]":"N/A",
	"[[TP_DT14]]":"N/A",
	"[[TP_HR14]]":"N/A",
	"[[TP_LD14]]":"N/A",
	"[[TP_CS14]]":"N/A",
	"[[TP_15]]":"N/A",
	"[[TP_DF15]]":"N/A",
	"[[TP_DT15]]":"N/A",
	"[[TP_HR15]]":"N/A",
	"[[TP_LD15]]":"N/A",
	"[[TP_CS15]]":"N/A",
	"[[TP_16]]":"N/A",
	"[[TP_DF16]]":"N/A",
	"[[TP_DT16]]":"N/A",
	"[[TP_HR16]]":"N/A",
	"[[TP_LD16]]":"N/A",
	"[[TP_CS16]]":"N/A",
	"[[TP_17]]":"N/A",
	"[[TP_DF17]]":"N/A",
	"[[TP_DT17]]":"N/A",
	"[[TP_HR17]]":"N/A",
	"[[TP_LD17]]":"N/A",
	"[[TP_CS17]]":"N/A",
	"[[TP_18]]":"N/A",
	"[[TP_DF18]]":"N/A",
	"[[TP_DT18]]":"N/A",
	"[[TP_HR18]]":"N/A",
	"[[TP_LD18]]":"N/A",
	"[[TP_CS18]]":"N/A",
	"[[TP_19]]":"N/A",
	"[[TP_DF19]]":"N/A",
	"[[TP_DT19]]":"N/A",
	"[[TP_HR19]]":"N/A",
	"[[TP_LD19]]":"N/A",
	"[[TP_CS19]]":"N/A",
	"[[TP_20]]":"N/A",
	"[[TP_DF20]]":"N/A",
	"[[TP_DT20]]":"N/A",
	"[[TP_HR20]]":"N/A",
	"[[TP_LD20]]":"N/A",
	"[[TP_CS20]]":"N/A",
	"[[TP_21]]":"N/A",
	"[[TP_DF21]]":"N/A",
	"[[TP_DT21]]":"N/A",
	"[[TP_HR21]]":"N/A",
	"[[TP_LD21]]":"N/A",
	"[[TP_CS21]]":"N/A",
	"[[TP_22]]":"N/A",
	"[[TP_DF22]]":"N/A",
	"[[TP_DT22]]":"N/A",
	"[[TP_HR22]]":"N/A",
	"[[TP_LD22]]":"N/A",
	"[[TP_CS22]]":"N/A",
	"[[TP_23]]":"N/A",
	"[[TP_DF23]]":"N/A",
	"[[TP_DT23]]":"N/A",
	"[[TP_HR23]]":"N/A",
	"[[TP_LD23]]":"N/A",
	"[[TP_CS23]]":"N/A",
	"[[TP_24]]":"N/A",
	"[[TP_DF24]]":"N/A",
	"[[TP_DT24]]":"N/A",
	"[[TP_HR24]]":"N/A",
	"[[TP_LD24]]":"N/A",
	"[[TP_CS24]]":"N/A",
	"[[TP_25]]":"N/A",
	"[[TP_DF25]]":"N/A",
	"[[TP_DT25]]":"N/A",
	"[[TP_HR25]]":"N/A",
	"[[TP_LD25]]":"N/A",
	"[[TP_CS25]]":"N/A",
	"[[OI_SS1]]":"N/A",
	"[[OI_R1]]":"N/A",
	"[[OI_ORG1]]":"N/A",
	"[[OI_SS2]]":"N/A",
	"[[OI_R2]]":"N/A",
	"[[OI_ORG2]]":"N/A",
	"[[OI_SS3]]":"N/A",
	"[[OI_R3]]":"N/A",
	"[[OI_ORG3]]":"N/A",
	"[[OI_SS4]]":"N/A",
	"[[OI_R4]]":"N/A",
	"[[OI_ORG4]]":"N/A",
	"[[OI_SS5]]":"N/A",
	"[[OI_R5]]":"N/A",
	"[[OI_ORG5]]":"N/A",
	"[[OI_SS6]]":"N/A",
	"[[OI_R6]]":"N/A",
	"[[OI_ORG6]]":"N/A",
	"[[OI_SS7]]":"N/A",
	"[[OI_R7]]":"N/A",
	"[[OI_ORG7]]":"N/A"
}