COS1000,Abaoag,Ronnie,Administrative Services Assistant,Administration and Legal Affairs,Administration Department,,,12/02/2000,,,24940,Contract of Service
50,Agustin,Evelyn,Deputy Administrator ,Technical Regulation Area,,,10,08/10/2017,28,1,114981,Termer
69,Avila III,Vicente,Driver Mechanic B,Administration and Legal Affairs,Administration Department,,65,01/19/1998,7,6,15895,Permanent
36,Castasus,Candelaria,Senior Water Utilities Regulation Officer ,Financial Regulation Area,Financial Audit & Asset Monitoring Department,,48,10/01/1997,18,8,41413,Permanent
96,Chuegan,Alan,Finance Officer B,Administration and Legal Affairs,Administration Department,,27,02/23/2009,20,4,49184,Permanent
130,Dans,Ana Maria,Senior Information Officer ,Office of the Chief Regulator,Public Information Department,,8,11/20/2017,18,1,38085,Permanent
72,Diala,Roberto,Driver Mechanic B,Administration and Legal Affairs,Administration Department,,68,03/03/1999,7,6,15895,Permanent
131,Gacula,Manuel,Senior Corporate Attorney,Administration and Legal Affairs,Legal Department,,34,11/20/2017,21,1,52554,Permanent
COS1009,Gravador,Daniel,Water Utilities Regulation Officer,Technical Regulation Area,,,,06/04/2018,15,1,31010,Contract of Service
123,Isorena,Claudine,Deputy Administrator,Administration and Legal Affairs,,,22,03/16/2016,28,1,114981,Termer
24,Jallorina,Clarissa,Senior Water Utilities Regulation Officer,Technical Regulation Area,Water Quality Control Department,,20,09/29/1997,18,8,41413,Permanent
COS1013,Limin,Alex,Driver,Financial Regulation Area,,,,08/13/2018,7,1,17254,Contract of Service
70,Lumbres,Edgar,Driver Mechanic B,Administration and Legal Affairs,Administration Department,,66,02/16/1998,7,6,15895,Permanent
133,Macatangay,Mario,Department Manager A,Technical Regulation Area,Operations Monitoring Department,,12,01/03/2018,26,1,92108,Permanent
125,Magsambol,Darrell John,Head Technical Assistant ,Office of the Chief Regulator,,,2,08/01/2017,23,1,65604,Coterminous
81,Makiling,Maria Theresa,Finance Officer B,Administration and Legal Affairs,Administration Department,,26,12/01/2003,20,5,49921,Permanent
COS1012,Manuyag,Francis ,Driver,Administration and Legal Affairs,,,,06/08/2018,7,1,17254,Contract of Service
112,Maravilla,Sir Gil,Administrative Officer II,Administration and Legal Affairs,Administration Department,,71,01/06/2014,15,1,29010,Permanent
118,Medina,John Oliver,Driver Mechanic B,Administration and Legal Affairs,Administration Department,,30,07/27/2015,7,2,15380,Permanent
73,Nagtalon,Crisanto,Driver Mechanic B,Administration and Legal Affairs,Administration Department,,69,11/16/1998,7,6,15895,Permanent
12,Octa,Virginia V,Department Manager A,Administration and Legal Affairs,Administration Department,,24,09/01/1997,26,8,102217,Permanent
COS2016,Paderna,Rommel,Driver,Customer Service Regulation Area,,,,09/25/2018,7,1,17254,Contract of Service
COS1002,Pura,Blessa Marie,Water Utilities Regulation Officer,Technical Regulation Area,,,,05/02/2018,11,1,22179,Contract of Service
33,Romero,Emelita,Technical Assistant A ,Financial Regulation Area,,,37,10/01/1997,22,8,65162,Permanent
COS1017,Tabes,Mark,Driver,Office of the Chief Regulator,,,,10/01/2018,7,1,17254,Contract of Service
71,Talplacido,Lamberto,Driver Mechanic A     ,Office of the Chief Regulator,,,5,07/16/2015,9,2,17627,Permanent
85,Tolentino,Olivia,Senior Water Utilities Regulation Officer,Customer Service Regulation Area,Complaints Services Monitoring Department,,54,03/14/2016,18,1,38085,Permanent
COS1010,Torres,Joshua Rene,Administrative Services Assistant,Administration and Legal Affairs,,,,06/10/2018,8,1,18282,Contract of Service
124,Ty,Patrick Lester,Chief Regulator,Office of the Chief Regulator,,,1,08/01/2017,29,1,128467,Termer
COS1018,Ubaldo,Jefferson,Driver,Technical Regulation Area,,,,10/03/2018,7,1,17254,Contract of Service
18,Valdez,Rosalinda,Chief Economist,Financial Regulation Area,Tariff Control Monitoring Department,,40,02/16/2004,22,5,62318,Permanent
137,Vicente,Yolanda,Secretary B,Administration and Legal Affairs,Administration Department,,25,,7,1,15254,Permanent
35,Zausa,Maria Sharlene,Supervising Financial Management Specialist,Financial Regulation Area,Financial Audit & Asset Monitoring Department,,45,10/01/1997,22,8,65162,Permanent
