{
	"1": {
		"FileName":"rpt_Employee_MasterList",
		"Name":"Employee Masterlist",
		"SystemRefId":1,
		"Owner":"E2E",
		"ExtType":"php"	
	},
	"2": {
		"FileName":"rpt_Leave_Card_28",
		"Name":"OVP Leave Card",
		"SystemRefId":2,
		"Owner":"E2E",
		"ExtType":"php"	
	}
}