02132018 08:54:38 AM->URL:/HRISDEV/hris/min/e2e/resources/views/pages/GlobalCaller.e2e.php?hSess=MTUxODQ4MzI3ODIwMTgwMjEzXzE1MTg0ODMyNzgyMDE4MDIxM19heg==&hUser=aubosque&hUserRefId=114&hCompanyID=2&hBranchID=1&hsysgrp=&hucode=COMPEMP&hUserGroup=COMPEMP&ccode=PCC&hEmpRefId=114&h=Secret&loginT=2018-02-13%2008:54:38%20AM&file=scrnWelcome&auth=init
02132018 08:54:39 AM->URL:/HRISDEV/hris/min/e2e/resources/views/pages/GlobalCaller.e2e.php?hSess=MTUxODQ4MzI3ODIwMTgwMjEzXzE1MTg0ODMyNzgyMDE4MDIxM19heg==&hUser=aubosque&hUserRefId=114&hCompanyID=2&hBranchID=1&hsysgrp=&hucode=COMPEMP&hUserGroup=COMPEMP&ccode=PCC&hEmpRefId=114&h=Secret&loginT=2018-02-13%2008:54:38%20AM&file=scrn201File&paramTitle=201%20File&hTable=Employees&auth=e67b9cf0bf9713d1653479ca452d68c7b0b3e8f6
02132018 09:00:02 AM->URL:/HRISDEV/hris/min/e2e/resources/views/pages/GlobalCaller.e2e.php?hSess=MTUxODQ4MzI3ODIwMTgwMjEzXzE1MTg0ODMyNzgyMDE4MDIxM19heg==&hUser=aubosque&hUserRefId=114&hCompanyID=2&hBranchID=1&hsysgrp=&hucode=COMPEMP&hUserGroup=COMPEMP&ccode=PCC&hEmpRefId=114&h=Secret&loginT=2018-02-13%2008:54:38%20AM&file=scrnLogOut&id=mLogOut&auth=e212be373d6f2028c7fed32df317bed7a51146e6
