02192018 08:07:48 PM->URL:/HRISDEV/hris/min/e2e/resources/views/pages/PopCaller.e2e.php?hSess=MTUxOTA0MTk4OTIwMTgwMjE5XzE1MTkwNDE5ODkyMDE4MDIxOV9heg==&hUser=aubosque&hUserRefId=114&hCompanyID=2&hBranchID=1&hsysgrp=&hucode=COMPEMP&hUserGroup=COMPEMP&ccode=PCC&hEmpRefId=114&h=Secret&loginT=2018-02-19%2008:06:29%20PM&file=FMCaller&f=Schools&hScrnMode=1&objid=sint_SchoolsRefId_5_1
02192018 08:08:10 PM->URL:/HRISDEV/hris/min/e2e/resources/views/pages/PopCaller.e2e.php?hSess=MTUxOTA0MTk4OTIwMTgwMjE5XzE1MTkwNDE5ODkyMDE4MDIxOV9heg==&hUser=aubosque&hUserRefId=114&hCompanyID=2&hBranchID=1&hsysgrp=&hucode=COMPEMP&hUserGroup=COMPEMP&ccode=PCC&hEmpRefId=114&h=Secret&loginT=2018-02-19%2008:06:29%20PM&file=FMCaller&f=Course&hScrnMode=1&objid=sint_CourseRefId_3_1
02192018 08:17:01 PM->URL:/HRISDEV/hris/min/e2e/resources/views/pages/PopCaller.e2e.php?hSess=MTUxOTA0MTk4OTIwMTgwMjE5XzE1MTkwNDE5ODkyMDE4MDIxOV9heg==&hUser=aubosque&hUserRefId=114&hCompanyID=2&hBranchID=1&hsysgrp=&hucode=COMPEMP&hUserGroup=COMPEMP&ccode=PCC&hEmpRefId=114&h=Secret&loginT=2018-02-19%2008:06:29%20PM&file=FMCaller&f=Course&hScrnMode=1&objid=sint_CourseRefId_3_2
02192018 08:21:10 PM->URL:/HRISDEV/hris/min/e2e/resources/views/pages/PopCaller.e2e.php?hSess=MTUxOTA0MTk4OTIwMTgwMjE5XzE1MTkwNDE5ODkyMDE4MDIxOV9heg==&hUser=aubosque&hUserRefId=114&hCompanyID=2&hBranchID=1&hsysgrp=&hucode=COMPEMP&hUserGroup=COMPEMP&ccode=PCC&hEmpRefId=114&h=Secret&loginT=2018-02-19%2008:06:29%20PM&file=FMCaller&f=Schools&hScrnMode=1&objid=sint_SchoolsRefId_5_1
02192018 08:25:14 PM->URL:/HRISDEV/hris/min/e2e/resources/views/pages/PopCaller.e2e.php?hSess=MTUxOTA0MTk4OTIwMTgwMjE5XzE1MTkwNDE5ODkyMDE4MDIxOV9heg==&hUser=aubosque&hUserRefId=114&hCompanyID=2&hBranchID=1&hsysgrp=&hucode=COMPEMP&hUserGroup=COMPEMP&ccode=PCC&hEmpRefId=114&h=Secret&loginT=2018-02-19%2008:06:29%20PM&file=FMCaller&f=Schools&hScrnMode=1&objid=sint_SchoolsRefId_5_1
02192018 08:26:16 PM->URL:/HRISDEV/hris/min/e2e/resources/views/pages/PopCaller.e2e.php?hSess=MTUxOTA0MTk4OTIwMTgwMjE5XzE1MTkwNDE5ODkyMDE4MDIxOV9heg==&hUser=aubosque&hUserRefId=114&hCompanyID=2&hBranchID=1&hsysgrp=&hucode=COMPEMP&hUserGroup=COMPEMP&ccode=PCC&hEmpRefId=114&h=Secret&loginT=2018-02-19%2008:06:29%20PM&file=FMCaller&f=Schools&hScrnMode=1&objid=sint_SchoolsRefId_5_1
