04232018 07:55:37 AM->URL:/HRISDEV/hris/min/e2e/resources/views/pages/GlobalCaller.e2e.php?hSess=MTUyNDQ0MTMzNzIwMTgwNDIzXzE1MjQ0NDEzMzcyMDE4MDQyM19heg==&hUser=aubosque&hUserRefId=114&hCompanyID=2&hBranchID=1&hsysgrp=&hucode=COMPEMP&hUserGroup=COMPEMP&ccode=PCC&hEmpRefId=114&h=Secret&loginT=2018-04-23%2007:55:37%20AM&file=scrnWelcome&auth=init
04232018 07:55:38 AM->URL:/HRISDEV/hris/min/e2e/resources/views/pages/GlobalCaller.e2e.php?hSess=MTUyNDQ0MTMzNzIwMTgwNDIzXzE1MjQ0NDEzMzcyMDE4MDQyM19heg==&hUser=aubosque&hUserRefId=114&hCompanyID=2&hBranchID=1&hsysgrp=&hucode=COMPEMP&hUserGroup=COMPEMP&ccode=PCC&hEmpRefId=114&h=Secret&loginT=2018-04-23%2007:55:37%20AM&file=scrn201File&paramTitle=201%20File&hTable=Employees&auth=bda95a4afaff294362fd68dbffd2f845c98e7a7b
04232018 08:40:56 AM->URL:/HRISDEV/hris/min/e2e/resources/views/pages/GlobalCaller.e2e.php?hSess=MTUyNDQ0MTMzNzIwMTgwNDIzXzE1MjQ0NDEzMzcyMDE4MDQyM19heg==&hUser=aubosque&hUserRefId=114&hCompanyID=2&hBranchID=1&hsysgrp=&hucode=COMPEMP&hUserGroup=COMPEMP&ccode=PCC&hEmpRefId=114&h=Secret&loginT=2018-04-23%2007:55:37%20AM&file=scrn201File&paramTitle=201%20File&hTable=employees&auth=b95209b4dbe0c921c35e6caf38be9f027d21b5d0
04232018 09:36:12 AM->URL:/HRISDEV/hris/min/e2e/resources/views/pages/GlobalCaller.e2e.php?hSess=MTUyNDQ0MTMzNzIwMTgwNDIzXzE1MjQ0NDEzMzcyMDE4MDQyM19heg==&hUser=aubosque&hUserRefId=114&hCompanyID=2&hBranchID=1&hsysgrp=&hucode=COMPEMP&hUserGroup=COMPEMP&ccode=PCC&hEmpRefId=114&h=Secret&loginT=2018-04-23%2007:55:37%20AM&file=scrn201File&paramTitle=201%20File&hTable=employees&auth=b95209b4dbe0c921c35e6caf38be9f027d21b5d0
04232018 09:42:51 AM->URL:/HRISDEV/hris/min/e2e/resources/views/pages/GlobalCaller.e2e.php?hSess=MTUyNDQ0MTMzNzIwMTgwNDIzXzE1MjQ0NDEzMzcyMDE4MDQyM19heg==&hUser=aubosque&hUserRefId=114&hCompanyID=2&hBranchID=1&hsysgrp=&hucode=COMPEMP&hUserGroup=COMPEMP&ccode=PCC&hEmpRefId=114&h=Secret&loginT=2018-04-23%2007:55:37%20AM&file=scrn201File&paramTitle=201%20File&hTable=employees&auth=733ba08551d0f2cf216f5cb07c60a662f6fb526d
04232018 10:35:46 AM->URL:/HRISDEV/hris/min/e2e/resources/views/pages/GlobalCaller.e2e.php?hSess=MTUyNDQ0MTMzNzIwMTgwNDIzXzE1MjQ0NDEzMzcyMDE4MDQyM19heg==&hUser=aubosque&hUserRefId=114&hCompanyID=2&hBranchID=1&hsysgrp=&hucode=COMPEMP&hUserGroup=COMPEMP&ccode=PCC&hEmpRefId=114&h=Secret&loginT=2018-04-23%2007:55:37%20AM&file=scrn201File&paramTitle=201%20File&hTable=employees&auth=ce0d21da354010b5e47efd8ca4dac8366e9aa1d3
04232018 03:23:11 PM->URL:/HRISDEV/hris/min/e2e/resources/views/pages/GlobalCaller.e2e.php?hSess=MTUyNDQ2ODE5MTIwMTgwNDIzXzE1MjQ0NjgxOTEyMDE4MDQyM19heg==&hUser=aubosque&hUserRefId=114&hCompanyID=2&hBranchID=1&hsysgrp=&hucode=COMPEMP&hUserGroup=COMPEMP&ccode=PCC&hEmpRefId=114&h=Secret&loginT=2018-04-23%2003:23:11%20PM&file=scrnWelcome&auth=init
04232018 03:23:26 PM->URL:/HRISDEV/hris/min/e2e/resources/views/pages/GlobalCaller.e2e.php?hSess=MTUyNDQ2ODE5MTIwMTgwNDIzXzE1MjQ0NjgxOTEyMDE4MDQyM19heg==&hUser=aubosque&hUserRefId=114&hCompanyID=2&hBranchID=1&hsysgrp=&hucode=COMPEMP&hUserGroup=COMPEMP&ccode=PCC&hEmpRefId=114&h=Secret&loginT=2018-04-23%2003:23:11%20PM&file=scrn201File&paramTitle=201%20File&hTable=Employees&auth=0deb49bf1a1771686d829d73e5d872dbbc7f485e
04232018 06:18:24 PM->URL:/HRISDEV/hris/min/e2e/resources/views/pages/GlobalCaller.e2e.php?hSess=MTUyNDQ3ODcwNDIwMTgwNDIzXzE1MjQ0Nzg3MDQyMDE4MDQyM19heg==&hUser=aubosque&hUserRefId=114&hCompanyID=2&hBranchID=1&hsysgrp=&hucode=COMPEMP&hUserGroup=COMPEMP&ccode=PCC&hEmpRefId=114&h=Secret&loginT=2018-04-23%2006:18:24%20PM&file=scrnWelcome&auth=init
04232018 06:18:26 PM->URL:/HRISDEV/hris/min/e2e/resources/views/pages/GlobalCaller.e2e.php?hSess=MTUyNDQ3ODcwNDIwMTgwNDIzXzE1MjQ0Nzg3MDQyMDE4MDQyM19heg==&hUser=aubosque&hUserRefId=114&hCompanyID=2&hBranchID=1&hsysgrp=&hucode=COMPEMP&hUserGroup=COMPEMP&ccode=PCC&hEmpRefId=114&h=Secret&loginT=2018-04-23%2006:18:24%20PM&file=scrn201File&paramTitle=201%20File&hTable=Employees&auth=598a6126682c436bf7344c7d68864749bb6e959c
04232018 06:24:49 PM->URL:/HRISDEV/hris/min/e2e/resources/views/pages/GlobalCaller.e2e.php?hSess=MTUyNDQ3ODcwNDIwMTgwNDIzXzE1MjQ0Nzg3MDQyMDE4MDQyM19heg==&hUser=aubosque&hUserRefId=114&hCompanyID=2&hBranchID=1&hsysgrp=&hucode=COMPEMP&hUserGroup=COMPEMP&ccode=PCC&hEmpRefId=114&h=Secret&loginT=2018-04-23%2006:18:24%20PM&file=scrn201File&paramTitle=201%20File&hTable=employees&hGridTblHdr=Last%20Name|First%20Name|Contact%20No|Birth%20Date|Civil%20Status&hGridTblFld=LastName|FirstName|ContactNo|BirthDate|CivilStatus&auth=f25ef8a2f21af3e4086d0f7fcb773b2c6c4cb33c
04232018 06:30:44 PM->URL:/HRISDEV/hris/min/e2e/resources/views/pages/GlobalCaller.e2e.php?hSess=MTUyNDQ3ODcwNDIwMTgwNDIzXzE1MjQ0Nzg3MDQyMDE4MDQyM19heg==&hUser=aubosque&hUserRefId=114&hCompanyID=2&hBranchID=1&hsysgrp=&hucode=COMPEMP&hUserGroup=COMPEMP&ccode=PCC&hEmpRefId=114&h=Secret&loginT=2018-04-23%2006:18:24%20PM&file=scrn201File&paramTitle=201%20File&hTable=employees&hGridTblHdr=Last%20Name|First%20Name|Contact%20No|Birth%20Date|Civil%20Status&hGridTblFld=LastName|FirstName|ContactNo|BirthDate|CivilStatus&auth=f25ef8a2f21af3e4086d0f7fcb773b2c6c4cb33c
04232018 06:36:42 PM->URL:/HRISDEV/hris/min/e2e/resources/views/pages/GlobalCaller.e2e.php?hSess=MTUyNDQ3ODcwNDIwMTgwNDIzXzE1MjQ0Nzg3MDQyMDE4MDQyM19heg==&hUser=aubosque&hUserRefId=114&hCompanyID=2&hBranchID=1&hsysgrp=&hucode=COMPEMP&hUserGroup=COMPEMP&ccode=PCC&hEmpRefId=114&h=Secret&loginT=2018-04-23%2006:18:24%20PM&file=scrn201File&paramTitle=201%20File&hTable=employees&hGridTblHdr=Last%20Name|First%20Name|Contact%20No|Birth%20Date|Civil%20Status&hGridTblFld=LastName|FirstName|ContactNo|BirthDate|CivilStatus&auth=4fa486cd76c3134d78825f180889c64e66faa97f
