02232018 07:01:38 AM->URL:/HRISDEV/hris/min/e2e/resources/views/pages/GlobalCaller.e2e.php?hSess=MTUxOTM0MDQ5NzIwMTgwMjIzXzE1MTkzNDA0OTcyMDE4MDIyM19heg==&hUser=aubosque&hUserRefId=114&hCompanyID=2&hBranchID=1&hsysgrp=&hucode=COMPEMP&hUserGroup=COMPEMP&ccode=PCC&hEmpRefId=114&h=Secret&loginT=2018-02-23%2007:01:37%20AM&file=scrnWelcome&auth=init
02232018 07:01:42 AM->URL:/HRISDEV/hris/min/e2e/resources/views/pages/GlobalCaller.e2e.php?hSess=MTUxOTM0MDQ5NzIwMTgwMjIzXzE1MTkzNDA0OTcyMDE4MDIyM19heg==&hUser=aubosque&hUserRefId=114&hCompanyID=2&hBranchID=1&hsysgrp=&hucode=COMPEMP&hUserGroup=COMPEMP&ccode=PCC&hEmpRefId=114&h=Secret&loginT=2018-02-23%2007:01:37%20AM&file=scrn201File&paramTitle=201%20File&hTable=Employees&auth=3cab0865e0777cba6b12cd03c243ceab77e282f8
02232018 09:58:54 AM->URL:/HRISDEV/hris/min/e2e/resources/views/pages/GlobalCaller.e2e.php?hSess=MTUxOTM1MTEzNDIwMTgwMjIzXzE1MTkzNTExMzQyMDE4MDIyM19heg==&hUser=aubosque&hUserRefId=114&hCompanyID=2&hBranchID=1&hsysgrp=&hucode=COMPEMP&hUserGroup=COMPEMP&ccode=PCC&hEmpRefId=114&h=Secret&loginT=2018-02-23%2009:58:54%20AM&file=scrnWelcome&auth=init
02232018 09:58:56 AM->URL:/HRISDEV/hris/min/e2e/resources/views/pages/GlobalCaller.e2e.php?hSess=MTUxOTM1MTEzNDIwMTgwMjIzXzE1MTkzNTExMzQyMDE4MDIyM19heg==&hUser=aubosque&hUserRefId=114&hCompanyID=2&hBranchID=1&hsysgrp=&hucode=COMPEMP&hUserGroup=COMPEMP&ccode=PCC&hEmpRefId=114&h=Secret&loginT=2018-02-23%2009:58:54%20AM&file=scrn201File&paramTitle=201%20File&hTable=Employees&auth=1c1989fec1d4732f683f2765dd61abe8467cfef0
02232018 11:13:32 AM->URL:/HRISDEV/hris/min/e2e/resources/views/pages/GlobalCaller.e2e.php?hSess=MTUxOTM1MTEzNDIwMTgwMjIzXzE1MTkzNTExMzQyMDE4MDIyM19heg==&hUser=aubosque&hUserRefId=114&hCompanyID=2&hBranchID=1&hsysgrp=&hucode=COMPEMP&hUserGroup=COMPEMP&ccode=PCC&hEmpRefId=114&h=Secret&loginT=2018-02-23%2009:58:54%20AM&file=scrn201File&paramTitle=201%20File&hTable=Employees&auth=1c1989fec1d4732f683f2765dd61abe8467cfef0
02232018 11:14:10 AM->URL:/HRISDEV/hris/min/e2e/resources/views/pages/GlobalCaller.e2e.php?hSess=MTUxOTM1MTEzNDIwMTgwMjIzXzE1MTkzNTExMzQyMDE4MDIyM19heg==&hUser=aubosque&hUserRefId=114&hCompanyID=2&hBranchID=1&hsysgrp=&hucode=COMPEMP&hUserGroup=COMPEMP&ccode=PCC&hEmpRefId=114&h=Secret&loginT=2018-02-23%2009:58:54%20AM&file=scrn201File&paramTitle=201%20File&hTable=employees&auth=61a3224f84f995c16267d4f0af992ea3c10b60af
02232018 11:18:04 AM->URL:/HRISDEV/hris/min/e2e/resources/views/pages/GlobalCaller.e2e.php?hSess=MTUxOTM1MTEzNDIwMTgwMjIzXzE1MTkzNTExMzQyMDE4MDIyM19heg==&hUser=aubosque&hUserRefId=114&hCompanyID=2&hBranchID=1&hsysgrp=&hucode=COMPEMP&hUserGroup=COMPEMP&ccode=PCC&hEmpRefId=114&h=Secret&loginT=2018-02-23%2009:58:54%20AM&file=scrn201File&paramTitle=201%20File&hTable=Employees&auth=1c1989fec1d4732f683f2765dd61abe8467cfef0
02232018 12:04:12 PM->URL:/HRISDEV/hris/min/e2e/resources/views/pages/GlobalCaller.e2e.php?hSess=MTUxOTM1MTEzNDIwMTgwMjIzXzE1MTkzNTExMzQyMDE4MDIyM19heg==&hUser=aubosque&hUserRefId=114&hCompanyID=2&hBranchID=1&hsysgrp=&hucode=COMPEMP&hUserGroup=COMPEMP&ccode=PCC&hEmpRefId=114&h=Secret&loginT=2018-02-23%2009:58:54%20AM&file=scrn201File&paramTitle=201%20File&hTable=employees&auth=fc0a08ed55a1fbb1e866e698f6a2ec2b123b1b9b
02232018 12:04:42 PM->URL:/HRISDEV/hris/min/e2e/resources/views/pages/GlobalCaller.e2e.php?hSess=MTUxOTM1MTEzNDIwMTgwMjIzXzE1MTkzNTExMzQyMDE4MDIyM19heg==&hUser=aubosque&hUserRefId=114&hCompanyID=2&hBranchID=1&hsysgrp=&hucode=COMPEMP&hUserGroup=COMPEMP&ccode=PCC&hEmpRefId=114&h=Secret&loginT=2018-02-23%2009:58:54%20AM&file=scrn201File&paramTitle=201%20File&hTable=employees&auth=eed1fd8573c588393a33dd3cc527228fd10500a0
02232018 12:05:45 PM->URL:/HRISDEV/hris/min/e2e/resources/views/pages/GlobalCaller.e2e.php?hSess=MTUxOTM1MTEzNDIwMTgwMjIzXzE1MTkzNTExMzQyMDE4MDIyM19heg==&hUser=aubosque&hUserRefId=114&hCompanyID=2&hBranchID=1&hsysgrp=&hucode=COMPEMP&hUserGroup=COMPEMP&ccode=PCC&hEmpRefId=114&h=Secret&loginT=2018-02-23%2009:58:54%20AM&file=scrn201File&paramTitle=201%20File&hTable=employees&auth=389900b5846e2241611f2269590df57db6e664dc
02232018 12:07:02 PM->URL:/HRISDEV/hris/min/e2e/resources/views/pages/GlobalCaller.e2e.php?hSess=MTUxOTM1MTEzNDIwMTgwMjIzXzE1MTkzNTExMzQyMDE4MDIyM19heg==&hUser=aubosque&hUserRefId=114&hCompanyID=2&hBranchID=1&hsysgrp=&hucode=COMPEMP&hUserGroup=COMPEMP&ccode=PCC&hEmpRefId=114&h=Secret&loginT=2018-02-23%2009:58:54%20AM&file=scrn201File&paramTitle=201%20File&hTable=employees&auth=48ecb1c1058686c64038fdacc5a7680530540327
02232018 12:10:31 PM->URL:/HRISDEV/hris/min/e2e/resources/views/pages/GlobalCaller.e2e.php?hSess=MTUxOTM1MTEzNDIwMTgwMjIzXzE1MTkzNTExMzQyMDE4MDIyM19heg==&hUser=aubosque&hUserRefId=114&hCompanyID=2&hBranchID=1&hsysgrp=&hucode=COMPEMP&hUserGroup=COMPEMP&ccode=PCC&hEmpRefId=114&h=Secret&loginT=2018-02-23%2009:58:54%20AM&file=scrn201File&paramTitle=201%20File&hTable=employees&auth=a191a65780cbbeeed43a2e83a8bff95deaced0b4
02232018 01:40:59 PM->URL:/HRISDEV/hris/min/e2e/resources/views/pages/GlobalCaller.e2e.php?hSess=MTUxOTM2NDQ1OTIwMTgwMjIzXzE1MTkzNjQ0NTkyMDE4MDIyM19heg==&hUser=aubosque&hUserRefId=114&hCompanyID=2&hBranchID=1&hsysgrp=&hucode=COMPEMP&hUserGroup=COMPEMP&ccode=PCC&hEmpRefId=114&h=Secret&loginT=2018-02-23%2001:40:59%20PM&file=scrnWelcome&auth=init
02232018 01:41:01 PM->URL:/HRISDEV/hris/min/e2e/resources/views/pages/GlobalCaller.e2e.php?hSess=MTUxOTM2NDQ1OTIwMTgwMjIzXzE1MTkzNjQ0NTkyMDE4MDIyM19heg==&hUser=aubosque&hUserRefId=114&hCompanyID=2&hBranchID=1&hsysgrp=&hucode=COMPEMP&hUserGroup=COMPEMP&ccode=PCC&hEmpRefId=114&h=Secret&loginT=2018-02-23%2001:40:59%20PM&file=scrn201File&paramTitle=201%20File&hTable=Employees&auth=004a9b09a5d99a03efbdc28b124f0c5756fc1024
02232018 01:41:51 PM->URL:/HRISDEV/hris/min/e2e/resources/views/pages/GlobalCaller.e2e.php?hSess=MTUxOTM2NDQ1OTIwMTgwMjIzXzE1MTkzNjQ0NTkyMDE4MDIyM19heg==&hUser=aubosque&hUserRefId=114&hCompanyID=2&hBranchID=1&hsysgrp=&hucode=COMPEMP&hUserGroup=COMPEMP&ccode=PCC&hEmpRefId=114&h=Secret&loginT=2018-02-23%2001:40:59%20PM&file=scrn201File&paramTitle=201%20File&hTable=Employees&auth=004a9b09a5d99a03efbdc28b124f0c5756fc1024
02232018 01:46:03 PM->URL:/HRISDEV/hris/min/e2e/resources/views/pages/GlobalCaller.e2e.php?hSess=MTUxOTM2NDQ1OTIwMTgwMjIzXzE1MTkzNjQ0NTkyMDE4MDIyM19heg==&hUser=aubosque&hUserRefId=114&hCompanyID=2&hBranchID=1&hsysgrp=&hucode=COMPEMP&hUserGroup=COMPEMP&ccode=PCC&hEmpRefId=114&h=Secret&loginT=2018-02-23%2001:40:59%20PM&file=scrn201File&paramTitle=201%20File&hTable=Employees&auth=004a9b09a5d99a03efbdc28b124f0c5756fc1024
02232018 01:46:44 PM->URL:/HRISDEV/hris/min/e2e/resources/views/pages/GlobalCaller.e2e.php?hSess=MTUxOTM2NDQ1OTIwMTgwMjIzXzE1MTkzNjQ0NTkyMDE4MDIyM19heg==&hUser=aubosque&hUserRefId=114&hCompanyID=2&hBranchID=1&hsysgrp=&hucode=COMPEMP&hUserGroup=COMPEMP&ccode=PCC&hEmpRefId=114&h=Secret&loginT=2018-02-23%2001:40:59%20PM&file=scrn201File&paramTitle=201%20File&hTable=employees&auth=4be9b99a514c716b3da044c3c69a174bfa0e6cd0
02232018 01:46:59 PM->URL:/HRISDEV/hris/min/e2e/resources/views/pages/GlobalCaller.e2e.php?hSess=MTUxOTM2NDQ1OTIwMTgwMjIzXzE1MTkzNjQ0NTkyMDE4MDIyM19heg==&hUser=aubosque&hUserRefId=114&hCompanyID=2&hBranchID=1&hsysgrp=&hucode=COMPEMP&hUserGroup=COMPEMP&ccode=PCC&hEmpRefId=114&h=Secret&loginT=2018-02-23%2001:40:59%20PM&file=scrn201File&paramTitle=201%20File&hTable=employees&auth=8abccece2867bf903b22531e21a5af36dfb53ac7
02232018 01:51:02 PM->URL:/HRISDEV/hris/min/e2e/resources/views/pages/GlobalCaller.e2e.php?hSess=MTUxOTM1MTEzNDIwMTgwMjIzXzE1MTkzNTExMzQyMDE4MDIyM19heg==&hUser=aubosque&hUserRefId=114&hCompanyID=2&hBranchID=1&hsysgrp=&hucode=COMPEMP&hUserGroup=COMPEMP&ccode=PCC&hEmpRefId=114&h=Secret&loginT=2018-02-23%2009:58:54%20AM&file=scrnLogOut&id=mLogOut&auth=510fd46a4353e05b250a3069719c2c53e88f6cb5
02232018 02:10:43 PM->URL:/HRISDEV/hris/min/e2e/resources/views/pages/GlobalCaller.e2e.php?hSess=MTUxOTM2NDQ1OTIwMTgwMjIzXzE1MTkzNjQ0NTkyMDE4MDIyM19heg==&hUser=aubosque&hUserRefId=114&hCompanyID=2&hBranchID=1&hsysgrp=&hucode=COMPEMP&hUserGroup=COMPEMP&ccode=PCC&hEmpRefId=114&h=Secret&loginT=2018-02-23%2001:40:59%20PM&file=scrn201File&paramTitle=201%20File&hTable=employees&auth=4568fccc7ca46d0790fe31b6550af7ccb3d4a2a8
02232018 02:10:54 PM->URL:/HRISDEV/hris/min/e2e/resources/views/pages/GlobalCaller.e2e.php?hSess=MTUxOTM2NjI1NDIwMTgwMjIzXzE1MTkzNjYyNTQyMDE4MDIyM19heg==&hUser=aubosque&hUserRefId=114&hCompanyID=2&hBranchID=1&hsysgrp=&hucode=COMPEMP&hUserGroup=COMPEMP&ccode=PCC&hEmpRefId=114&h=Secret&loginT=2018-02-23%2002:10:54%20PM&file=scrnWelcome&auth=init
02232018 02:10:56 PM->URL:/HRISDEV/hris/min/e2e/resources/views/pages/GlobalCaller.e2e.php?hSess=MTUxOTM2NjI1NDIwMTgwMjIzXzE1MTkzNjYyNTQyMDE4MDIyM19heg==&hUser=aubosque&hUserRefId=114&hCompanyID=2&hBranchID=1&hsysgrp=&hucode=COMPEMP&hUserGroup=COMPEMP&ccode=PCC&hEmpRefId=114&h=Secret&loginT=2018-02-23%2002:10:54%20PM&file=scrn201File&paramTitle=201%20File&hTable=Employees&auth=c51fa3d5f85dea7f980f136fdd232b57ac1d4f29
