04302018 09:53:22 AM--mmmalabag      --hSess=MTUyNTA1MzIwMjIwMTgwNDMwXzE1MjUwNTMyMDIyMDE4MDQzMF9heg==&hUser=mmmalabag&hUserRefId=123&hCompanyID=2&hBranchID=1&hsysgrp=&hucode=COMPEMP&hUserGroup=COMPEMP&ccode=PCC&hEmpRefId=123&h=Secret&loginT=2018-04-30 09:53:22 AM
04302018 09:56:22 AM--rdevaristo     --hSess=MTUyNTA1MzM4MjIwMTgwNDMwXzE1MjUwNTMzODIyMDE4MDQzMF9heg==&hUser=rdevaristo&hUserRefId=83&hCompanyID=2&hBranchID=1&hsysgrp=&hucode=COMPEMP&hUserGroup=COMPEMP&ccode=PCC&hEmpRefId=83&h=Secret&loginT=2018-04-30 09:56:22 AM
04302018 11:15:01 AM--admin          --hSess=MTUyNTA1ODEwMTIwMTgwNDMwXzE1MjUwNTgxMDEyMDE4MDQzMF9heg==&hUser=admin&hUserRefId=46&hCompanyID=2&hBranchID=1&hsysgrp=1&hucode=SYSAD&hUserGroup=SYSAD&ccode=PCC&hEmpRefId=0&h=Secret&loginT=2018-04-30 11:15:01 AM
04302018 11:24:07 AM--sacorado       --hSess=MTUyNTA1ODY0NzIwMTgwNDMwXzE1MjUwNTg2NDcyMDE4MDQzMF9heg==&hUser=sacorado&hUserRefId=131&hCompanyID=2&hBranchID=1&hsysgrp=&hucode=COMPEMP&hUserGroup=COMPEMP&ccode=PCC&hEmpRefId=131&h=Secret&loginT=2018-04-30 11:24:07 AM
04302018 11:35:38 AM--admin          --hSess=MTUyNTA1OTMzODIwMTgwNDMwXzE1MjUwNTkzMzgyMDE4MDQzMF9heg==&hUser=admin&hUserRefId=46&hCompanyID=2&hBranchID=1&hsysgrp=1&hucode=SYSAD&hUserGroup=SYSAD&ccode=PCC&hEmpRefId=0&h=Secret&loginT=2018-04-30 11:35:38 AM
04302018 01:56:16 PM--mmmalabag      --hSess=MTUyNTA2Nzc3NjIwMTgwNDMwXzE1MjUwNjc3NzYyMDE4MDQzMF9heg==&hUser=mmmalabag&hUserRefId=123&hCompanyID=2&hBranchID=1&hsysgrp=&hucode=COMPEMP&hUserGroup=COMPEMP&ccode=PCC&hEmpRefId=123&h=Secret&loginT=2018-04-30 01:56:16 PM
04302018 02:48:55 PM--admin          --hSess=MTUyNTA3MDkzNTIwMTgwNDMwXzE1MjUwNzA5MzUyMDE4MDQzMF9heg==&hUser=admin&hUserRefId=46&hCompanyID=2&hBranchID=1&hsysgrp=1&hucode=SYSAD&hUserGroup=SYSAD&ccode=PCC&hEmpRefId=0&h=Secret&loginT=2018-04-30 02:48:55 PM
