01192018 10:23:11 AM--fhabellajr     --hSess=MTUxNjMyODU5MTIwMTgwMTE5XzE1MTYzMjg1OTEyMDE4MDExOV9heg==&hUser=fhabellajr&hUserRefId=116&hCompanyID=&hBranchID=&hsysgrp=&hucode=COMPEMP&hUserGroup=COMPEMP&ccode=&hEmpRefId=116&h=Secret&loginT=2018-01-19 10:23:11 AM
01192018 10:26:36 AM--fhabellajr     --hSess=MTUxNjMyODc5NjIwMTgwMTE5XzE1MTYzMjg3OTYyMDE4MDExOV9heg==&hUser=fhabellajr&hUserRefId=116&hCompanyID=2&hBranchID=1&hsysgrp=&hucode=COMPEMP&hUserGroup=COMPEMP&ccode=PCC&hEmpRefId=116&h=Secret&loginT=2018-01-19 10:26:36 AM
01192018 10:31:26 AM--mmmalabag      --hSess=MTUxNjMyOTA4NjIwMTgwMTE5XzE1MTYzMjkwODYyMDE4MDExOV9heg==&hUser=mmmalabag&hUserRefId=123&hCompanyID=2&hBranchID=1&hsysgrp=&hucode=COMPEMP&hUserGroup=COMPEMP&ccode=PCC&hEmpRefId=123&h=Secret&loginT=2018-01-19 10:31:26 AM
01192018 10:31:56 AM--admin          --hSess=MTUxNjMyOTExNjIwMTgwMTE5XzE1MTYzMjkxMTYyMDE4MDExOV9heg==&hUser=admin&hUserRefId=46&hCompanyID=2&hBranchID=1&hsysgrp=2&hucode=&hUserGroup=&ccode=PCC&hEmpRefId=0&h=Secret&loginT=2018-01-19 10:31:56 AM
01192018 01:17:59 PM--fhabellajr     --hSess=MTUxNjMzOTA3OTIwMTgwMTE5XzE1MTYzMzkwNzkyMDE4MDExOV9heg==&hUser=fhabellajr&hUserRefId=116&hCompanyID=2&hBranchID=1&hsysgrp=&hucode=COMPEMP&hUserGroup=COMPEMP&ccode=PCC&hEmpRefId=116&h=Secret&loginT=2018-01-19 01:17:59 PM
